…
Testing StatswithSparrows14.R...

Output (only first 500 characters): 

**********************************************************************
# A tibble: 618 x 2
   BirdID count
    <int> <int>
 1      1     1
 2      2    10
 3      3     1
 4      4     1
 5      5     9
 6      6     4
 7      7     2
 8      8     1
 9      9     1
10     10     3
# … with 608 more rows
…
